 Tnfrsf21
 Cdkn2d
 Vprbp
 Peli1
 Inppl1
Atg12
 Mef2c
Bcl2
 Cd22
 Pnp
 Sgk1
 Jun
 Cd79b
Cr2
Bcl11a
 Gsk3b
 Ccnd2
 Bcl2l11
 Bnip3
 Prkab2
 Fzd9
 Foxo3
 Vpreb1
 Ctps
 Myb
 Vpreb2
 Fcgr2b
 Gadd45a
 Ep300
Bcl2l11
 Polm
 Lgals8
Cd19
 Cdh17
 Lig4
 Irs1
Gsk3b
 Bcl2
 Cat
 Sash3
 Prkcb
 Nsd2
 Hdac9
 Foxo1
 Bcl6
 Pik3r2
 Hdac5
 Jak3
 Stat3
 Ptpn2
 Nckap1l
 Homer1
 Foxp1
 Cd24a
 Pik3r3
 Smad3
 Csnk1e
Blnk
Fnip1
 Nbn
 Pirb
 Gadd45b
 Xbp1
Bcl6
 Ccnd1
 Ikzf1
 Rag1
 Cr2
