1	Ezh2
2	Bach2
3	Ero1lb
4	Whsc1
5	Epc1
6	Crebrf
7	Pgrmc2
8	Larp1
9	Vamp1
10	Foxp1
11	Acbd5
12	Sh3kbp1
13	Pdss1
14	Jmjd1c
15	Bhlhe40
16	Srsf1
17	Pnrc1
18	Vps54
19	Hipk3
20	Elovl5
21	Bcl2
22	Pik3r3
23	Chd9
24	Vezf1
25	Gpbp1l1
26	Homer1
27	Ets2
28	Rfx3
29	Zbtb18
30	Eif2ak3
31	Cdk17
32	Ddx17
33	Gsk3b
34	Arid1b
35	Rictor
36	Strbp
37	Trp53inp2
38	Bptf
39	Trnt1
40	Arl8a
41	Camsap2
42	Klf6
43	Vprbp
44	Cited2
45	Btg1
46	Rcor1
47	Casz1
48	Ncoa2
49	Ddx6
50	Bcl6
51	Csnk1e
52	Ptpn2
53	Ccnd2
54	Jarid2
55	Tab2
56	Rbms1
57	Mtdh
58	Abi1
59	Jun
60	Amph
61	Mef2a
62	Ptp4a1
63	Plag1
64	Pbx3
65	Laptm4a
66	Foxo1
67	Tsr1
68	AU040320
69	Ralgps2
70	Cxcr4
71	Srsf2
72	Lmo2
73	Cdkn2d
74	Ulk2
75	Ago4
76	Sptbn1
77	Itpr1
78	Frmd4b
79	Ep300
80	Ythdf3
81	Hbp1
82	Rbbp7
83	Gpsm1
84	Snn
85	Daam1
86	Map2
87	Lcorl
88	Bcl11a
89	Arhgap15
90	Ypel2
91	Slc23a1
92	Mbnl3
93	Fbxo11
94	Ptpn1
95	Aftph
96	Arrdc3
97	Sgk1
98	Dnajc13
99	Eif3j1
100	Cnot6l
101	Itsn1
102	Wdr26
103	Acsl1
104	Aebp2
105	Cep350
106	Hsph1
107	Fndc3a
108	Dlgap4
109	B3gnt9
110	Ywhag
111	Brpf3
112	Ncoa3
113	Npm1
114	Wdr47
115	Irs1
116	Col4a3bp
117	Camta1
118	Birc6
119	Ccdc71l
120	Hdac9
121	Fgf9
122	Kdm6a
123	Antxr2
124	Kcnk10
125	Dusp10
126	Calm2
127	Sema3a
128	Cpeb3
129	Kif2a
130	Etf1
131	Cdk19
132	Ube2r2
133	Phf6
134	Bnip3
135	Med13
136	Dmxl1
137	Hook3
138	Eif4e
139	Abhd17c
140	Myb
141	Ndrg1
142	Smurf1
143	Dpysl2
144	Rfx4
145	Mllt3
146	Abca1
147	Syne1
148	Arpc5l
149	Stxbp3a
150	Jakmip1
151	Klf13
152	Tsc1
153	Dnajc19
154	Dus1l
155	Zswim5
156	Wsb1
157	Insig1
158	Fbxw4
159	Dll4
160	Snrk
161	Rnf145
162	Kdm3b
163	Pdia6
164	Armc1
165	Sesn1
166	Gata3
167	Ptger4
168	Arhgef3
169	Smad7
170	Vegfa
171	Ogt
172	Irf2
173	Arid4a
174	Ccnd1
175	Slc4a7
176	Xbp1
177	Add3
178	Atp13a3
179	Pde7a
180	Mef2c
181	Ccne1
182	Fryl
183	Pdha1
184	Lhx9
185	Ankrd28
186	Fam133b
187	Tspan5
188	Hnrnpd
189	Fyn
190	Gopc
191	Usp14
192	Vcl
193	Ppm1e
194	Grb10
195	Fbxo28
196	Ppm1d
197	Evi5
198	Abi3
199	Fam189a1
200	Apba1