1	Ezh2
2	Bach2
3	Ero1lb
4	Nek6
5	Lrch1
6	Whsc1
7	AU040320
8	Epc1
9	Crebrf
10	Baz2b
11	Pgrmc2
12	Larp1
13	Vamp1
14	Foxp1
15	Acbd5
16	Sh3kbp1
17	Pdss1
18	Jmjd1c
19	Jarid2
20	Bhlhe40
21	Srsf1
22	Etf1
23	Fam175b
24	Pnrc1
25	Vps54
26	Usp3
27	Hipk3
28	Elovl5
29	Bcl2
30	Fbxo11
31	Pik3r3
32	Chd9
33	Kbtbd8
34	Vezf1
35	Gpbp1l1
36	Homer1
37	Ets2
38	Rfx3
39	Zbtb18
40	Eif2ak3
41	Cdk17
42	Znrf3
43	Ddx17
44	Gsk3b
45	Arid1b
46	Nr3c1
47	Rictor
48	Strbp
49	Lcorl
50	Trp53inp2
51	Bptf
52	Trnt1
53	Arl8a
54	Camsap2
55	Klf6
56	Vprbp
57	Cited2
58	Btg1
59	Rcor1
60	Casz1
61	Ncoa2
62	Ddx6
63	Camk2d
64	Bcl6
65	Csnk1e
66	Ptpn2
67	Ccnd2
68	Xpo1
69	Tab2
70	B3gnt9
71	Tsr1
72	Rbms1
73	Mtdh
74	Abi1
75	Jun
76	Amph
77	Mef2a
78	Ptp4a1
79	Plag1
80	Gltscr1l
81	Pbx3
82	Laptm4a
83	Foxo1
84	Rabgap1
85	Ppm1e
86	Rreb1
87	Ralgps2
88	Cxcr4
89	Srsf2
90	Lmo2
91	Cdkn2d
92	Ulk2
93	Ago4
94	Elovl6
95	Sptbn1
96	Itpr1
97	Frmd4b
98	Ep300
99	Adck3
100	Ythdf3
101	Egln1
102	Cpeb3
103	Nr6a1
104	Hbp1
105	Rbbp7
106	Gpsm1
107	Snn
108	Abhd13
109	Daam1
110	Eif3j2
111	Map2
112	Fat1
113	Bcl11a
114	Arid4a
115	Arhgap15
116	Ypel2
117	Slc23a1
118	Mbnl3
119	Dnajb5
120	Ptpn1
121	Aftph
122	Foxo3
123	Rnf185
124	Arrdc3
125	Sgk1
126	Dnajc13
127	Wdr26
128	Atp2b4
129	Eif3j1
130	Cnot6l
131	Itsn1
132	Hnrnpr
133	Acsl1
134	Aebp2
135	Dcun1d1
136	Cep350
137	Cdv3
138	Hsph1
139	Fndc3a
140	Dlgap4
141	Ywhag
142	Brpf3
143	Ncoa3
144	Npm1
145	Wdr47
146	Irs1
147	Col4a3bp
148	Snrk
149	Camta1
150	Birc6
151	Ccdc71l
152	Hdac9
153	Fgf9
154	Kdm6a
155	Antxr2
156	Kcnk10
157	Dusp10
158	Calm2
159	Sema3a
160	Kif2a
161	Cdk19
162	Ube2r2
163	Baz1a
164	Phf6
165	Bnip3
166	Med13
167	Dmxl1
168	Hook3
169	Ammecr1l
170	Eif4e
171	Abhd17c
172	Myb
173	Ndrg1
174	Smurf1
175	Dpysl2
176	Rfx4
177	Mllt3
178	Abca1
179	Syne1
180	Arpc5l
181	Stxbp3a
182	Fam60a
183	Jakmip1
184	Klf13
185	Pcmtd1
186	Tsc1
187	Dnajc19
188	Dus1l
189	Btrc
190	Zswim5
191	Wsb1
192	Zcchc2
193	Insig1
194	Fbxw4
195	Dll4
196	Rnf145
197	Kdm3b
198	Pdia6
199	Armc1
200	Sesn1
201	Gata3
202	Ptger4
203	Arhgef3
204	Ccpg1
205	Fam78a
206	Smad7
207	Rai1
208	Vegfa
209	Ogt
210	Irf2
211	Srr
212	Ccnd1
213	Slc4a7
214	Xbp1
215	Herc2
