1	Ap5z1
2	Serinc3
3	Slc1a4
4	Ece1
5	Nhp2
6	Entpd5
7	Rrm2b
8	Acss1
9	Hivep2
10	Lat
11	Lrrc61
12	Rab43
13	Ddx58
14	Igf2bp2
15	Acbd5
16	Fndc3a
17	Cdv3
18	Wsb2
19	Lsm11
20	Prdx6
21	Cd3eap
22	Dkc1
23	Prmt5
24	Adrbk1
25	Vamp1
26	Nsun5
27	Fgd6
28	Fam53b
29	Eif2b3
30	Serp1
31	Zfp831
32	Psap
33	Cdca7l
34	Akirin1
35	Klhl24
36	Cluh
37	Phyh
38	Abi1
39	Tsr1
40	Aldh18a1
41	Tbc1d22b
42	Ccm2
43	Inppl1
44	Edil3
45	Slc35f6
46	Arrdc3
47	Wdr5
48	Gpcpd1
49	Afg3l2
50	Nek6
51	Cep41
52	Cytip
53	Tnpo3
54	Pde3b
55	Pcyt1a
56	Rabepk
57	Thop1
58	Gtpbp4
59	Rnf122
60	Desi1
61	Nsun2
62	Fbxl20
63	Iars
64	Cd1d1
65	Bri3bp
66	Dctd
67	Abce1
68	Pfkl
69	Arid5a
70	Eif3b
71	Chfr
72	Klc4
73	Lrp8
74	Ccrn4l
75	Ptpn1
76	Tyms
77	Btrc
78	Cr2
79	Mlxip
80	Plek
81	Slc4a8
82	Ralgps1
83	Tax1bp3
84	Dcun1d1
85	Chst3
86	Nxn
87	Dock8
88	Gcn1l1
89	Entpd7
90	Fastkd2
91	Agpat5
92	Ddx56
93	Slc39a14
94	L2hgdh
95	Ypel1
96	Ctse
97	Aldh3b1
98	Ikbkap
99	Gas7
100	Klf6
101	Glyr1
102	Calcoco1
103	Hivep1
104	Acox3
105	Knop1
106	Ppm1d
107	Fam65a
108	Tomm5
109	Pecr
110	Bysl
111	Accs
112	Immt
113	Vegfa
114	Hspbap1
115	Trp53inp2
116	Carhsp1
117	Elovl6
118	Bhlhe40
119	Cycs
120	Mrps17
121	P4hb
122	Cblb
123	Znrf3
124	Spr
125	Klra1
126	Mtmr12
127	Tspan4
128	Grasp
129	Il16
130	Entpd6
131	Gpam
132	Dennd5a
133	Pdha1
134	Cog6
135	Cat
136	Emc8
137	Stat3
138	Metap2
139	Cct8
140	Syne1
141	Gsk3b
142	Smim14
143	Nat10
144	Nrgn
145	Cnbp
146	D430042O09Rik
147	Ddx11
148	Cyth1
149	B3galt6
150	Pnkd
151	Tma16
152	Kdelc1
153	Zfp260
154	Elk4
155	Ypel2
156	Ndrg1
157	Rictor
158	Glipr2
159	Ncl
160	Ccdc86
161	Ube2b
162	Exo1
163	Ino80e
164	Ctns
165	Gfra1
166	Gse1
167	Gramd1a
168	Bag2
169	Slc19a1
170	Ift46
171	Ccdc137
172	Bmf
173	Gbp7
174	Tmem119
175	Pgm2l1
176	Thrb
177	Sash3
178	Lrig2
179	Cpox
180	Hmg20a
181	Acad10
182	Gcsh
183	Aph1b
184	Abcb6
185	Ctcf
186	Tmem50b
187	Ero1lb
188	Klhl42
189	Enpp6
190	Bfsp2
191	Slc25a51
192	Fmn2
193	Chid1
194	Dusp16
195	Cnot6l
196	Eif4e
197	Lhfp
198	Dnm3
199	Btg1
200	Lrch1
201	Coq5
202	Athl1
203	Pitpnm2
204	Etv5
205	Nudt16
206	Csnk1e
207	Mettl13
208	Strap
209	Tsn
210	Acbd3
211	Spryd7
212	Arl5a
213	Arhgef11
214	Hk2
215	Dpy19l1
